[gd_resource type="Environment" load_steps=2 format=2]

[sub_resource type="ProceduralSky" id=6]

[resource]
background_mode = 3
background_sky = SubResource( 6 )
background_color = Color( 0, 1, 0.882353, 1 )
